{ "frames": {
   "player (arm-back) 0.ase": {
    "frame": { "x": 200, "y": 241, "w": 9, "h": 41 },
    "rotated": false,
    "trimmed": true,
    "spriteSourceSize": { "x": 83, "y": 42, "w": 9, "h": 41 },
    "sourceSize": { "w": 160, "h": 128 },
    "duration": 400
   },
   "player (arm-back) 1.ase": {
    "frame": { "x": 368, "y": 238, "w": 9, "h": 41 },
    "rotated": false,
    "trimmed": true,
    "spriteSourceSize": { "x": 83, "y": 42, "w": 9, "h": 41 },
    "sourceSize": { "w": 160, "h": 128 },
    "duration": 200
   },
   "player (arm-back) 2.ase": {
    "frame": { "x": 95, "y": 241, "w": 9, "h": 41 },
    "rotated": false,
    "trimmed": true,
    "spriteSourceSize": { "x": 83, "y": 43, "w": 9, "h": 41 },
    "sourceSize": { "w": 160, "h": 128 },
    "duration": 400
   },
   "player (arm-back) 9.ase": {
    "frame": { "x": 351, "y": 238, "w": 16, "h": 24 },
    "rotated": false,
    "trimmed": true,
    "spriteSourceSize": { "x": 84, "y": 49, "w": 16, "h": 24 },
    "sourceSize": { "w": 160, "h": 128 },
    "duration": 100
   },
   "player (arm-back) 10.ase": {
    "frame": { "x": 144, "y": 238, "w": 17, "h": 23 },
    "rotated": false,
    "trimmed": true,
    "spriteSourceSize": { "x": 82, "y": 48, "w": 17, "h": 23 },
    "sourceSize": { "w": 160, "h": 128 },
    "duration": 100
   },
   "player (arm-back) 11.ase": {
    "frame": { "x": 461, "y": 239, "w": 16, "h": 24 },
    "rotated": false,
    "trimmed": true,
    "spriteSourceSize": { "x": 84, "y": 50, "w": 16, "h": 24 },
    "sourceSize": { "w": 160, "h": 128 },
    "duration": 100
   },
   "player (arm-back) 12.ase": {
    "frame": { "x": 232, "y": 238, "w": 15, "h": 26 },
    "rotated": false,
    "trimmed": true,
    "spriteSourceSize": { "x": 84, "y": 48, "w": 15, "h": 26 },
    "sourceSize": { "w": 160, "h": 128 },
    "duration": 100
   },
   "player (arm-back) 13.ase": {
    "frame": { "x": 494, "y": 242, "w": 15, "h": 24 },
    "rotated": false,
    "trimmed": true,
    "spriteSourceSize": { "x": 81, "y": 50, "w": 15, "h": 24 },
    "sourceSize": { "w": 160, "h": 128 },
    "duration": 100
   },
   "player (arm-back) 14.ase": {
    "frame": { "x": 478, "y": 242, "w": 15, "h": 25 },
    "rotated": false,
    "trimmed": true,
    "spriteSourceSize": { "x": 84, "y": 49, "w": 15, "h": 25 },
    "sourceSize": { "w": 160, "h": 128 },
    "duration": 100
   },
   "player (arm-back) 15.ase": {
    "frame": { "x": 502, "y": 149, "w": 9, "h": 43 },
    "rotated": false,
    "trimmed": true,
    "spriteSourceSize": { "x": 85, "y": 45, "w": 9, "h": 43 },
    "sourceSize": { "w": 160, "h": 128 },
    "duration": 100
   },
   "player (arm-back) 16.ase": {
    "frame": { "x": 85, "y": 227, "w": 9, "h": 43 },
    "rotated": false,
    "trimmed": true,
    "spriteSourceSize": { "x": 85, "y": 45, "w": 9, "h": 43 },
    "sourceSize": { "w": 160, "h": 128 },
    "duration": 100
   },
   "player (arm-back) 17.ase": {
    "frame": { "x": 502, "y": 105, "w": 9, "h": 43 },
    "rotated": false,
    "trimmed": true,
    "spriteSourceSize": { "x": 85, "y": 45, "w": 9, "h": 43 },
    "sourceSize": { "w": 160, "h": 128 },
    "duration": 100
   },
   "player (arm-back) 18.ase": {
    "frame": { "x": 34, "y": 236, "w": 9, "h": 43 },
    "rotated": false,
    "trimmed": true,
    "spriteSourceSize": { "x": 85, "y": 45, "w": 9, "h": 43 },
    "sourceSize": { "w": 160, "h": 128 },
    "duration": 100
   },
   "player (arm-back) 19.ase": {
    "frame": { "x": 293, "y": 238, "w": 9, "h": 43 },
    "rotated": false,
    "trimmed": true,
    "spriteSourceSize": { "x": 85, "y": 45, "w": 9, "h": 43 },
    "sourceSize": { "w": 160, "h": 128 },
    "duration": 100
   },
   "player (arm-back) 20.ase": {
    "frame": { "x": 303, "y": 238, "w": 9, "h": 43 },
    "rotated": false,
    "trimmed": true,
    "spriteSourceSize": { "x": 85, "y": 45, "w": 9, "h": 43 },
    "sourceSize": { "w": 160, "h": 128 },
    "duration": 100
   },
   "player (leg-back) 0.ase": {
    "frame": { "x": 403, "y": 194, "w": 13, "h": 38 },
    "rotated": false,
    "trimmed": true,
    "spriteSourceSize": { "x": 81, "y": 90, "w": 13, "h": 38 },
    "sourceSize": { "w": 160, "h": 128 },
    "duration": 400
   },
   "player (leg-back) 1.ase": {
    "frame": { "x": 51, "y": 102, "w": 13, "h": 37 },
    "rotated": false,
    "trimmed": true,
    "spriteSourceSize": { "x": 81, "y": 91, "w": 13, "h": 37 },
    "sourceSize": { "w": 160, "h": 128 },
    "duration": 200
   },
   "player (leg-back) 2.ase": {
    "frame": { "x": 95, "y": 204, "w": 13, "h": 36 },
    "rotated": false,
    "trimmed": true,
    "spriteSourceSize": { "x": 81, "y": 92, "w": 13, "h": 36 },
    "sourceSize": { "w": 160, "h": 128 },
    "duration": 400
   },
   "player (leg-back) 3.ase": {
    "frame": { "x": 279, "y": 223, "w": 13, "h": 32 },
    "rotated": false,
    "trimmed": true,
    "spriteSourceSize": { "x": 68, "y": 96, "w": 13, "h": 32 },
    "sourceSize": { "w": 160, "h": 128 },
    "duration": 150
   },
   "player (leg-back) 4.ase": {
    "frame": { "x": 103, "y": 139, "w": 22, "h": 32 },
    "rotated": false,
    "trimmed": true,
    "spriteSourceSize": { "x": 59, "y": 96, "w": 22, "h": 32 },
    "sourceSize": { "w": 160, "h": 128 },
    "duration": 150
   },
   "player (leg-back) 5.ase": {
    "frame": { "x": 126, "y": 137, "w": 27, "h": 28 },
    "rotated": false,
    "trimmed": true,
    "spriteSourceSize": { "x": 64, "y": 92, "w": 27, "h": 28 },
    "sourceSize": { "w": 160, "h": 128 },
    "duration": 150
   },
   "player (leg-back) 6.ase": {
    "frame": { "x": 382, "y": 226, "w": 13, "h": 32 },
    "rotated": false,
    "trimmed": true,
    "spriteSourceSize": { "x": 68, "y": 96, "w": 13, "h": 32 },
    "sourceSize": { "w": 160, "h": 128 },
    "duration": 150
   },
   "player (leg-back) 7.ase": {
    "frame": { "x": 154, "y": 140, "w": 22, "h": 32 },
    "rotated": false,
    "trimmed": true,
    "spriteSourceSize": { "x": 59, "y": 96, "w": 22, "h": 32 },
    "sourceSize": { "w": 160, "h": 128 },
    "duration": 150
   },
   "player (leg-back) 8.ase": {
    "frame": { "x": 51, "y": 139, "w": 27, "h": 28 },
    "rotated": false,
    "trimmed": true,
    "spriteSourceSize": { "x": 64, "y": 92, "w": 27, "h": 28 },
    "sourceSize": { "w": 160, "h": 128 },
    "duration": 150
   },
   "player (leg-back) 9.ase": {
    "frame": { "x": 481, "y": 164, "w": 20, "h": 32 },
    "rotated": false,
    "trimmed": true,
    "spriteSourceSize": { "x": 52, "y": 96, "w": 20, "h": 32 },
    "sourceSize": { "w": 160, "h": 128 },
    "duration": 100
   },
   "player (leg-back) 10.ase": {
    "frame": { "x": 277, "y": 156, "w": 26, "h": 26 },
    "rotated": false,
    "trimmed": true,
    "spriteSourceSize": { "x": 53, "y": 95, "w": 26, "h": 26 },
    "sourceSize": { "w": 160, "h": 128 },
    "duration": 100
   },
   "player (leg-back) 11.ase": {
    "frame": { "x": 208, "y": 157, "w": 26, "h": 26 },
    "rotated": false,
    "trimmed": true,
    "spriteSourceSize": { "x": 63, "y": 95, "w": 26, "h": 26 },
    "sourceSize": { "w": 160, "h": 128 },
    "duration": 100
   },
   "player (leg-back) 12.ase": {
    "frame": { "x": 126, "y": 166, "w": 20, "h": 32 },
    "rotated": false,
    "trimmed": true,
    "spriteSourceSize": { "x": 52, "y": 96, "w": 20, "h": 32 },
    "sourceSize": { "w": 160, "h": 128 },
    "duration": 100
   },
   "player (leg-back) 13.ase": {
    "frame": { "x": 0, "y": 158, "w": 26, "h": 26 },
    "rotated": false,
    "trimmed": true,
    "spriteSourceSize": { "x": 53, "y": 95, "w": 26, "h": 26 },
    "sourceSize": { "w": 160, "h": 128 },
    "duration": 100
   },
   "player (leg-back) 14.ase": {
    "frame": { "x": 177, "y": 158, "w": 26, "h": 26 },
    "rotated": false,
    "trimmed": true,
    "spriteSourceSize": { "x": 63, "y": 95, "w": 26, "h": 26 },
    "sourceSize": { "w": 160, "h": 128 },
    "duration": 100
   },
   "player (leg-back) 15.ase": {
    "frame": { "x": 454, "y": 164, "w": 26, "h": 26 },
    "rotated": false,
    "trimmed": true,
    "spriteSourceSize": { "x": 67, "y": 93, "w": 26, "h": 26 },
    "sourceSize": { "w": 160, "h": 128 },
    "duration": 100
   },
   "player (leg-back) 16.ase": {
    "frame": { "x": 454, "y": 164, "w": 26, "h": 26 },
    "rotated": false,
    "trimmed": true,
    "spriteSourceSize": { "x": 67, "y": 93, "w": 26, "h": 26 },
    "sourceSize": { "w": 160, "h": 128 },
    "duration": 100
   },
   "player (leg-back) 17.ase": {
    "frame": { "x": 454, "y": 164, "w": 26, "h": 26 },
    "rotated": false,
    "trimmed": true,
    "spriteSourceSize": { "x": 67, "y": 93, "w": 26, "h": 26 },
    "sourceSize": { "w": 160, "h": 128 },
    "duration": 100
   },
   "player (leg-back) 18.ase": {
    "frame": { "x": 454, "y": 164, "w": 26, "h": 26 },
    "rotated": false,
    "trimmed": true,
    "spriteSourceSize": { "x": 67, "y": 93, "w": 26, "h": 26 },
    "sourceSize": { "w": 160, "h": 128 },
    "duration": 100
   },
   "player (leg-back) 19.ase": {
    "frame": { "x": 454, "y": 164, "w": 26, "h": 26 },
    "rotated": false,
    "trimmed": true,
    "spriteSourceSize": { "x": 67, "y": 93, "w": 26, "h": 26 },
    "sourceSize": { "w": 160, "h": 128 },
    "duration": 100
   },
   "player (leg-back) 20.ase": {
    "frame": { "x": 454, "y": 164, "w": 26, "h": 26 },
    "rotated": false,
    "trimmed": true,
    "spriteSourceSize": { "x": 67, "y": 93, "w": 26, "h": 26 },
    "sourceSize": { "w": 160, "h": 128 },
    "duration": 100
   },
   "player (leg-front) 0.ase": {
    "frame": { "x": 318, "y": 218, "w": 12, "h": 36 },
    "rotated": false,
    "trimmed": true,
    "spriteSourceSize": { "x": 67, "y": 92, "w": 12, "h": 36 },
    "sourceSize": { "w": 160, "h": 128 },
    "duration": 400
   },
   "player (leg-front) 1.ase": {
    "frame": { "x": 131, "y": 222, "w": 12, "h": 35 },
    "rotated": false,
    "trimmed": true,
    "spriteSourceSize": { "x": 67, "y": 93, "w": 12, "h": 35 },
    "sourceSize": { "w": 160, "h": 128 },
    "duration": 200
   },
   "player (leg-front) 2.ase": {
    "frame": { "x": 396, "y": 233, "w": 12, "h": 34 },
    "rotated": false,
    "trimmed": true,
    "spriteSourceSize": { "x": 67, "y": 94, "w": 12, "h": 34 },
    "sourceSize": { "w": 160, "h": 128 },
    "duration": 400
   },
   "player (leg-front) 3.ase": {
    "frame": { "x": 235, "y": 160, "w": 21, "h": 31 },
    "rotated": false,
    "trimmed": true,
    "spriteSourceSize": { "x": 81, "y": 94, "w": 21, "h": 31 },
    "sourceSize": { "w": 160, "h": 128 },
    "duration": 150
   },
   "player (leg-front) 4.ase": {
    "frame": { "x": 293, "y": 183, "w": 16, "h": 32 },
    "rotated": false,
    "trimmed": true,
    "spriteSourceSize": { "x": 82, "y": 96, "w": 16, "h": 32 },
    "sourceSize": { "w": 160, "h": 128 },
    "duration": 150
   },
   "player (leg-front) 5.ase": {
    "frame": { "x": 0, "y": 231, "w": 13, "h": 32 },
    "rotated": false,
    "trimmed": true,
    "spriteSourceSize": { "x": 71, "y": 96, "w": 13, "h": 32 },
    "sourceSize": { "w": 160, "h": 128 },
    "duration": 150
   },
   "player (leg-front) 6.ase": {
    "frame": { "x": 27, "y": 159, "w": 21, "h": 31 },
    "rotated": false,
    "trimmed": true,
    "spriteSourceSize": { "x": 81, "y": 94, "w": 21, "h": 31 },
    "sourceSize": { "w": 160, "h": 128 },
    "duration": 150
   },
   "player (leg-front) 7.ase": {
    "frame": { "x": 312, "y": 99, "w": 16, "h": 32 },
    "rotated": false,
    "trimmed": true,
    "spriteSourceSize": { "x": 82, "y": 96, "w": 16, "h": 32 },
    "sourceSize": { "w": 160, "h": 128 },
    "duration": 150
   },
   "player (leg-front) 8.ase": {
    "frame": { "x": 71, "y": 227, "w": 13, "h": 32 },
    "rotated": false,
    "trimmed": true,
    "spriteSourceSize": { "x": 71, "y": 96, "w": 13, "h": 32 },
    "sourceSize": { "w": 160, "h": 128 },
    "duration": 150
   },
   "player (leg-front) 9.ase": {
    "frame": { "x": 430, "y": 136, "w": 23, "h": 32 },
    "rotated": false,
    "trimmed": true,
    "spriteSourceSize": { "x": 89, "y": 89, "w": 23, "h": 32 },
    "sourceSize": { "w": 160, "h": 128 },
    "duration": 100
   },
   "player (leg-front) 10.ase": {
    "frame": { "x": 109, "y": 172, "w": 15, "h": 39 },
    "rotated": false,
    "trimmed": true,
    "spriteSourceSize": { "x": 88, "y": 89, "w": 15, "h": 39 },
    "sourceSize": { "w": 160, "h": 128 },
    "duration": 100
   },
   "player (leg-front) 11.ase": {
    "frame": { "x": 430, "y": 169, "w": 19, "h": 33 },
    "rotated": false,
    "trimmed": true,
    "spriteSourceSize": { "x": 69, "y": 95, "w": 19, "h": 33 },
    "sourceSize": { "w": 160, "h": 128 },
    "duration": 100
   },
   "player (leg-front) 12.ase": {
    "frame": { "x": 79, "y": 139, "w": 23, "h": 32 },
    "rotated": false,
    "trimmed": true,
    "spriteSourceSize": { "x": 89, "y": 89, "w": 23, "h": 32 },
    "sourceSize": { "w": 160, "h": 128 },
    "duration": 100
   },
   "player (leg-front) 13.ase": {
    "frame": { "x": 277, "y": 183, "w": 15, "h": 39 },
    "rotated": false,
    "trimmed": true,
    "spriteSourceSize": { "x": 88, "y": 89, "w": 15, "h": 39 },
    "sourceSize": { "w": 160, "h": 128 },
    "duration": 100
   },
   "player (leg-front) 14.ase": {
    "frame": { "x": 49, "y": 168, "w": 19, "h": 33 },
    "rotated": false,
    "trimmed": true,
    "spriteSourceSize": { "x": 69, "y": 95, "w": 19, "h": 33 },
    "sourceSize": { "w": 160, "h": 128 },
    "duration": 100
   },
   "player (leg-front) 15.ase": {
    "frame": { "x": 257, "y": 153, "w": 19, "h": 36 },
    "rotated": false,
    "trimmed": true,
    "spriteSourceSize": { "x": 72, "y": 91, "w": 19, "h": 36 },
    "sourceSize": { "w": 160, "h": 128 },
    "duration": 100
   },
   "player (leg-front) 16.ase": {
    "frame": { "x": 257, "y": 153, "w": 19, "h": 36 },
    "rotated": false,
    "trimmed": true,
    "spriteSourceSize": { "x": 72, "y": 91, "w": 19, "h": 36 },
    "sourceSize": { "w": 160, "h": 128 },
    "duration": 100
   },
   "player (leg-front) 17.ase": {
    "frame": { "x": 257, "y": 153, "w": 19, "h": 36 },
    "rotated": false,
    "trimmed": true,
    "spriteSourceSize": { "x": 72, "y": 91, "w": 19, "h": 36 },
    "sourceSize": { "w": 160, "h": 128 },
    "duration": 100
   },
   "player (leg-front) 18.ase": {
    "frame": { "x": 257, "y": 153, "w": 19, "h": 36 },
    "rotated": false,
    "trimmed": true,
    "spriteSourceSize": { "x": 72, "y": 91, "w": 19, "h": 36 },
    "sourceSize": { "w": 160, "h": 128 },
    "duration": 100
   },
   "player (leg-front) 19.ase": {
    "frame": { "x": 257, "y": 153, "w": 19, "h": 36 },
    "rotated": false,
    "trimmed": true,
    "spriteSourceSize": { "x": 72, "y": 91, "w": 19, "h": 36 },
    "sourceSize": { "w": 160, "h": 128 },
    "duration": 100
   },
   "player (leg-front) 20.ase": {
    "frame": { "x": 257, "y": 153, "w": 19, "h": 36 },
    "rotated": false,
    "trimmed": true,
    "spriteSourceSize": { "x": 72, "y": 91, "w": 19, "h": 36 },
    "sourceSize": { "w": 160, "h": 128 },
    "duration": 100
   },
   "player (wings) 0.ase": {
    "frame": { "x": 32, "y": 46, "w": 31, "h": 55 },
    "rotated": false,
    "trimmed": true,
    "spriteSourceSize": { "x": 49, "y": 43, "w": 31, "h": 55 },
    "sourceSize": { "w": 160, "h": 128 },
    "duration": 400
   },
   "player (wings) 1.ase": {
    "frame": { "x": 95, "y": 83, "w": 30, "h": 55 },
    "rotated": false,
    "trimmed": true,
    "spriteSourceSize": { "x": 50, "y": 43, "w": 30, "h": 55 },
    "sourceSize": { "w": 160, "h": 128 },
    "duration": 200
   },
   "player (wings) 2.ase": {
    "frame": { "x": 64, "y": 83, "w": 30, "h": 55 },
    "rotated": false,
    "trimmed": true,
    "spriteSourceSize": { "x": 50, "y": 44, "w": 30, "h": 55 },
    "sourceSize": { "w": 160, "h": 128 },
    "duration": 400
   },
   "player (wings) 3.ase": {
    "frame": { "x": 423, "y": 80, "w": 30, "h": 55 },
    "rotated": false,
    "trimmed": true,
    "spriteSourceSize": { "x": 51, "y": 43, "w": 30, "h": 55 },
    "sourceSize": { "w": 160, "h": 128 },
    "duration": 150
   },
   "player (wings) 4.ase": {
    "frame": { "x": 456, "y": 48, "w": 31, "h": 55 },
    "rotated": false,
    "trimmed": true,
    "spriteSourceSize": { "x": 50, "y": 44, "w": 31, "h": 55 },
    "sourceSize": { "w": 160, "h": 128 },
    "duration": 150
   },
   "player (wings) 5.ase": {
    "frame": { "x": 328, "y": 80, "w": 31, "h": 55 },
    "rotated": false,
    "trimmed": true,
    "spriteSourceSize": { "x": 49, "y": 44, "w": 31, "h": 55 },
    "sourceSize": { "w": 160, "h": 128 },
    "duration": 150
   },
   "player (wings) 6.ase": {
    "frame": { "x": 392, "y": 80, "w": 30, "h": 55 },
    "rotated": false,
    "trimmed": true,
    "spriteSourceSize": { "x": 51, "y": 43, "w": 30, "h": 55 },
    "sourceSize": { "w": 160, "h": 128 },
    "duration": 150
   },
   "player (wings) 7.ase": {
    "frame": { "x": 0, "y": 46, "w": 31, "h": 55 },
    "rotated": false,
    "trimmed": true,
    "spriteSourceSize": { "x": 50, "y": 44, "w": 31, "h": 55 },
    "sourceSize": { "w": 160, "h": 128 },
    "duration": 150
   },
   "player (wings) 8.ase": {
    "frame": { "x": 360, "y": 80, "w": 31, "h": 55 },
    "rotated": false,
    "trimmed": true,
    "spriteSourceSize": { "x": 49, "y": 44, "w": 31, "h": 55 },
    "sourceSize": { "w": 160, "h": 128 },
    "duration": 150
   },
   "player (wings) 9.ase": {
    "frame": { "x": 212, "y": 0, "w": 59, "h": 44 },
    "rotated": false,
    "trimmed": true,
    "spriteSourceSize": { "x": 31, "y": 48, "w": 59, "h": 44 },
    "sourceSize": { "w": 160, "h": 128 },
    "duration": 100
   },
   "player (wings) 10.ase": {
    "frame": { "x": 332, "y": 40, "w": 61, "h": 39 },
    "rotated": false,
    "trimmed": true,
    "spriteSourceSize": { "x": 29, "y": 47, "w": 61, "h": 39 },
    "sourceSize": { "w": 160, "h": 128 },
    "duration": 100
   },
   "player (wings) 11.ase": {
    "frame": { "x": 394, "y": 40, "w": 61, "h": 39 },
    "rotated": false,
    "trimmed": true,
    "spriteSourceSize": { "x": 29, "y": 46, "w": 61, "h": 39 },
    "sourceSize": { "w": 160, "h": 128 },
    "duration": 100
   },
   "player (wings) 12.ase": {
    "frame": { "x": 272, "y": 0, "w": 59, "h": 44 },
    "rotated": false,
    "trimmed": true,
    "spriteSourceSize": { "x": 31, "y": 48, "w": 59, "h": 44 },
    "sourceSize": { "w": 160, "h": 128 },
    "duration": 100
   },
   "player (wings) 13.ase": {
    "frame": { "x": 332, "y": 0, "w": 61, "h": 39 },
    "rotated": false,
    "trimmed": true,
    "spriteSourceSize": { "x": 29, "y": 47, "w": 61, "h": 39 },
    "sourceSize": { "w": 160, "h": 128 },
    "duration": 100
   },
   "player (wings) 14.ase": {
    "frame": { "x": 394, "y": 0, "w": 61, "h": 39 },
    "rotated": false,
    "trimmed": true,
    "spriteSourceSize": { "x": 29, "y": 46, "w": 61, "h": 39 },
    "sourceSize": { "w": 160, "h": 128 },
    "duration": 100
   },
   "player (wings) 15.ase": {
    "frame": { "x": 70, "y": 0, "w": 70, "h": 44 },
    "rotated": false,
    "trimmed": true,
    "spriteSourceSize": { "x": 14, "y": 18, "w": 70, "h": 44 },
    "sourceSize": { "w": 160, "h": 128 },
    "duration": 100
   },
   "player (wings) 16.ase": {
    "frame": { "x": 0, "y": 0, "w": 69, "h": 45 },
    "rotated": false,
    "trimmed": true,
    "spriteSourceSize": { "x": 15, "y": 16, "w": 69, "h": 45 },
    "sourceSize": { "w": 160, "h": 128 },
    "duration": 100
   },
   "player (wings) 17.ase": {
    "frame": { "x": 141, "y": 0, "w": 70, "h": 44 },
    "rotated": false,
    "trimmed": true,
    "spriteSourceSize": { "x": 14, "y": 18, "w": 70, "h": 44 },
    "sourceSize": { "w": 160, "h": 128 },
    "duration": 100
   },
   "player (wings) 18.ase": {
    "frame": { "x": 70, "y": 45, "w": 55, "h": 37 },
    "rotated": false,
    "trimmed": true,
    "spriteSourceSize": { "x": 27, "y": 34, "w": 55, "h": 37 },
    "sourceSize": { "w": 160, "h": 128 },
    "duration": 100
   },
   "player (wings) 19.ase": {
    "frame": { "x": 456, "y": 0, "w": 47, "h": 47 },
    "rotated": false,
    "trimmed": true,
    "spriteSourceSize": { "x": 35, "y": 34, "w": 47, "h": 47 },
    "sourceSize": { "w": 160, "h": 128 },
    "duration": 100
   },
   "player (wings) 20.ase": {
    "frame": { "x": 126, "y": 45, "w": 55, "h": 37 },
    "rotated": false,
    "trimmed": true,
    "spriteSourceSize": { "x": 27, "y": 34, "w": 55, "h": 37 },
    "sourceSize": { "w": 160, "h": 128 },
    "duration": 100
   },
   "player (head) 0.ase": {
    "frame": { "x": 262, "y": 244, "w": 13, "h": 22 },
    "rotated": false,
    "trimmed": true,
    "spriteSourceSize": { "x": 79, "y": 23, "w": 13, "h": 22 },
    "sourceSize": { "w": 160, "h": 128 },
    "duration": 400
   },
   "player (head) 1.ase": {
    "frame": { "x": 248, "y": 244, "w": 13, "h": 22 },
    "rotated": false,
    "trimmed": true,
    "spriteSourceSize": { "x": 79, "y": 24, "w": 13, "h": 22 },
    "sourceSize": { "w": 160, "h": 128 },
    "duration": 200
   },
   "player (head) 2.ase": {
    "frame": { "x": 105, "y": 244, "w": 13, "h": 22 },
    "rotated": false,
    "trimmed": true,
    "spriteSourceSize": { "x": 79, "y": 24, "w": 13, "h": 22 },
    "sourceSize": { "w": 160, "h": 128 },
    "duration": 400
   },
   "player (head) 3.ase": {
    "frame": { "x": 313, "y": 255, "w": 12, "h": 18 },
    "rotated": false,
    "trimmed": true,
    "spriteSourceSize": { "x": 80, "y": 27, "w": 12, "h": 18 },
    "sourceSize": { "w": 160, "h": 128 },
    "duration": 150
   },
   "player (head) 4.ase": {
    "frame": { "x": 57, "y": 247, "w": 12, "h": 18 },
    "rotated": false,
    "trimmed": true,
    "spriteSourceSize": { "x": 81, "y": 29, "w": 12, "h": 18 },
    "sourceSize": { "w": 160, "h": 128 },
    "duration": 150
   },
   "player (head) 5.ase": {
    "frame": { "x": 44, "y": 247, "w": 12, "h": 18 },
    "rotated": false,
    "trimmed": true,
    "spriteSourceSize": { "x": 79, "y": 27, "w": 12, "h": 18 },
    "sourceSize": { "w": 160, "h": 128 },
    "duration": 150
   },
   "player (head) 6.ase": {
    "frame": { "x": 422, "y": 246, "w": 12, "h": 18 },
    "rotated": false,
    "trimmed": true,
    "spriteSourceSize": { "x": 81, "y": 27, "w": 12, "h": 18 },
    "sourceSize": { "w": 160, "h": 128 },
    "duration": 150
   },
   "player (head) 7.ase": {
    "frame": { "x": 409, "y": 246, "w": 12, "h": 18 },
    "rotated": false,
    "trimmed": true,
    "spriteSourceSize": { "x": 81, "y": 29, "w": 12, "h": 18 },
    "sourceSize": { "w": 160, "h": 128 },
    "duration": 150
   },
   "player (head) 8.ase": {
    "frame": { "x": 119, "y": 244, "w": 12, "h": 18 },
    "rotated": false,
    "trimmed": true,
    "spriteSourceSize": { "x": 79, "y": 27, "w": 12, "h": 18 },
    "sourceSize": { "w": 160, "h": 128 },
    "duration": 150
   },
   "player (head) 9.ase": {
    "frame": { "x": 181, "y": 241, "w": 18, "h": 21 },
    "rotated": false,
    "trimmed": true,
    "spriteSourceSize": { "x": 84, "y": 30, "w": 18, "h": 21 },
    "sourceSize": { "w": 160, "h": 128 },
    "duration": 100
   },
   "player (head) 10.ase": {
    "frame": { "x": 212, "y": 234, "w": 19, "h": 21 },
    "rotated": false,
    "trimmed": true,
    "spriteSourceSize": { "x": 83, "y": 32, "w": 19, "h": 21 },
    "sourceSize": { "w": 160, "h": 128 },
    "duration": 100
   },
   "player (head) 11.ase": {
    "frame": { "x": 441, "y": 234, "w": 19, "h": 21 },
    "rotated": false,
    "trimmed": true,
    "spriteSourceSize": { "x": 83, "y": 31, "w": 19, "h": 21 },
    "sourceSize": { "w": 160, "h": 128 },
    "duration": 100
   },
   "player (head) 12.ase": {
    "frame": { "x": 14, "y": 236, "w": 19, "h": 21 },
    "rotated": false,
    "trimmed": true,
    "spriteSourceSize": { "x": 83, "y": 30, "w": 19, "h": 21 },
    "sourceSize": { "w": 160, "h": 128 },
    "duration": 100
   },
   "player (head) 13.ase": {
    "frame": { "x": 331, "y": 236, "w": 19, "h": 21 },
    "rotated": false,
    "trimmed": true,
    "spriteSourceSize": { "x": 83, "y": 32, "w": 19, "h": 21 },
    "sourceSize": { "w": 160, "h": 128 },
    "duration": 100
   },
   "player (head) 14.ase": {
    "frame": { "x": 162, "y": 241, "w": 18, "h": 21 },
    "rotated": false,
    "trimmed": true,
    "spriteSourceSize": { "x": 83, "y": 30, "w": 18, "h": 21 },
    "sourceSize": { "w": 160, "h": 128 },
    "duration": 100
   },
   "player (head) 15.ase": {
    "frame": { "x": 500, "y": 197, "w": 12, "h": 18 },
    "rotated": false,
    "trimmed": true,
    "spriteSourceSize": { "x": 81, "y": 27, "w": 12, "h": 18 },
    "sourceSize": { "w": 160, "h": 128 },
    "duration": 100
   },
   "player (head) 16.ase": {
    "frame": { "x": 500, "y": 197, "w": 12, "h": 18 },
    "rotated": false,
    "trimmed": true,
    "spriteSourceSize": { "x": 81, "y": 27, "w": 12, "h": 18 },
    "sourceSize": { "w": 160, "h": 128 },
    "duration": 100
   },
   "player (head) 17.ase": {
    "frame": { "x": 500, "y": 197, "w": 12, "h": 18 },
    "rotated": false,
    "trimmed": true,
    "spriteSourceSize": { "x": 81, "y": 27, "w": 12, "h": 18 },
    "sourceSize": { "w": 160, "h": 128 },
    "duration": 100
   },
   "player (head) 18.ase": {
    "frame": { "x": 500, "y": 197, "w": 12, "h": 18 },
    "rotated": false,
    "trimmed": true,
    "spriteSourceSize": { "x": 81, "y": 27, "w": 12, "h": 18 },
    "sourceSize": { "w": 160, "h": 128 },
    "duration": 100
   },
   "player (head) 19.ase": {
    "frame": { "x": 500, "y": 197, "w": 12, "h": 18 },
    "rotated": false,
    "trimmed": true,
    "spriteSourceSize": { "x": 81, "y": 27, "w": 12, "h": 18 },
    "sourceSize": { "w": 160, "h": 128 },
    "duration": 100
   },
   "player (head) 20.ase": {
    "frame": { "x": 500, "y": 197, "w": 12, "h": 18 },
    "rotated": false,
    "trimmed": true,
    "spriteSourceSize": { "x": 81, "y": 27, "w": 12, "h": 18 },
    "sourceSize": { "w": 160, "h": 128 },
    "duration": 100
   },
   "player (body) 0.ase": {
    "frame": { "x": 0, "y": 102, "w": 25, "h": 55 },
    "rotated": false,
    "trimmed": true,
    "spriteSourceSize": { "x": 67, "y": 42, "w": 25, "h": 55 },
    "sourceSize": { "w": 160, "h": 128 },
    "duration": 400
   },
   "player (body) 1.ase": {
    "frame": { "x": 156, "y": 83, "w": 25, "h": 56 },
    "rotated": false,
    "trimmed": true,
    "spriteSourceSize": { "x": 67, "y": 42, "w": 25, "h": 56 },
    "sourceSize": { "w": 160, "h": 128 },
    "duration": 200
   },
   "player (body) 2.ase": {
    "frame": { "x": 208, "y": 101, "w": 25, "h": 55 },
    "rotated": false,
    "trimmed": true,
    "spriteSourceSize": { "x": 67, "y": 43, "w": 25, "h": 55 },
    "sourceSize": { "w": 160, "h": 128 },
    "duration": 400
   },
   "player (body) 3.ase": {
    "frame": { "x": 454, "y": 104, "w": 23, "h": 58 },
    "rotated": false,
    "trimmed": true,
    "spriteSourceSize": { "x": 68, "y": 40, "w": 23, "h": 58 },
    "sourceSize": { "w": 160, "h": 128 },
    "duration": 150
   },
   "player (body) 4.ase": {
    "frame": { "x": 360, "y": 136, "w": 23, "h": 57 },
    "rotated": false,
    "trimmed": true,
    "spriteSourceSize": { "x": 68, "y": 43, "w": 23, "h": 57 },
    "sourceSize": { "w": 160, "h": 128 },
    "duration": 150
   },
   "player (body) 5.ase": {
    "frame": { "x": 407, "y": 136, "w": 22, "h": 57 },
    "rotated": false,
    "trimmed": true,
    "spriteSourceSize": { "x": 67, "y": 41, "w": 22, "h": 57 },
    "sourceSize": { "w": 160, "h": 128 },
    "duration": 150
   },
   "player (body) 6.ase": {
    "frame": { "x": 234, "y": 101, "w": 22, "h": 58 },
    "rotated": false,
    "trimmed": true,
    "spriteSourceSize": { "x": 69, "y": 40, "w": 22, "h": 58 },
    "sourceSize": { "w": 160, "h": 128 },
    "duration": 150
   },
   "player (body) 7.ase": {
    "frame": { "x": 336, "y": 136, "w": 23, "h": 57 },
    "rotated": false,
    "trimmed": true,
    "spriteSourceSize": { "x": 68, "y": 43, "w": 23, "h": 57 },
    "sourceSize": { "w": 160, "h": 128 },
    "duration": 150
   },
   "player (body) 8.ase": {
    "frame": { "x": 384, "y": 136, "w": 22, "h": 57 },
    "rotated": false,
    "trimmed": true,
    "spriteSourceSize": { "x": 67, "y": 41, "w": 22, "h": 57 },
    "sourceSize": { "w": 160, "h": 128 },
    "duration": 150
   },
   "player (body) 9.ase": {
    "frame": { "x": 219, "y": 45, "w": 36, "h": 55 },
    "rotated": false,
    "trimmed": true,
    "spriteSourceSize": { "x": 61, "y": 46, "w": 36, "h": 55 },
    "sourceSize": { "w": 160, "h": 128 },
    "duration": 100
   },
   "player (body) 10.ase": {
    "frame": { "x": 292, "y": 45, "w": 35, "h": 53 },
    "rotated": false,
    "trimmed": true,
    "spriteSourceSize": { "x": 62, "y": 49, "w": 35, "h": 53 },
    "sourceSize": { "w": 160, "h": 128 },
    "duration": 100
   },
   "player (body) 11.ase": {
    "frame": { "x": 256, "y": 99, "w": 29, "h": 53 },
    "rotated": false,
    "trimmed": true,
    "spriteSourceSize": { "x": 62, "y": 47, "w": 29, "h": 53 },
    "sourceSize": { "w": 160, "h": 128 },
    "duration": 100
   },
   "player (body) 12.ase": {
    "frame": { "x": 182, "y": 45, "w": 36, "h": 55 },
    "rotated": false,
    "trimmed": true,
    "spriteSourceSize": { "x": 61, "y": 46, "w": 36, "h": 55 },
    "sourceSize": { "w": 160, "h": 128 },
    "duration": 100
   },
   "player (body) 13.ase": {
    "frame": { "x": 256, "y": 45, "w": 35, "h": 53 },
    "rotated": false,
    "trimmed": true,
    "spriteSourceSize": { "x": 62, "y": 49, "w": 35, "h": 53 },
    "sourceSize": { "w": 160, "h": 128 },
    "duration": 100
   },
   "player (body) 14.ase": {
    "frame": { "x": 126, "y": 83, "w": 29, "h": 53 },
    "rotated": false,
    "trimmed": true,
    "spriteSourceSize": { "x": 62, "y": 47, "w": 29, "h": 53 },
    "sourceSize": { "w": 160, "h": 128 },
    "duration": 100
   },
   "player (body) 15.ase": {
    "frame": { "x": 312, "y": 136, "w": 23, "h": 58 },
    "rotated": false,
    "trimmed": true,
    "spriteSourceSize": { "x": 69, "y": 40, "w": 23, "h": 58 },
    "sourceSize": { "w": 160, "h": 128 },
    "duration": 100
   },
   "player (body) 16.ase": {
    "frame": { "x": 26, "y": 102, "w": 24, "h": 56 },
    "rotated": false,
    "trimmed": true,
    "spriteSourceSize": { "x": 68, "y": 40, "w": 24, "h": 56 },
    "sourceSize": { "w": 160, "h": 128 },
    "duration": 100
   },
   "player (body) 17.ase": {
    "frame": { "x": 286, "y": 99, "w": 25, "h": 56 },
    "rotated": false,
    "trimmed": true,
    "spriteSourceSize": { "x": 67, "y": 40, "w": 25, "h": 56 },
    "sourceSize": { "w": 160, "h": 128 },
    "duration": 100
   },
   "player (body) 18.ase": {
    "frame": { "x": 478, "y": 105, "w": 23, "h": 58 },
    "rotated": false,
    "trimmed": true,
    "spriteSourceSize": { "x": 69, "y": 40, "w": 23, "h": 58 },
    "sourceSize": { "w": 160, "h": 128 },
    "duration": 100
   },
   "player (body) 19.ase": {
    "frame": { "x": 488, "y": 48, "w": 24, "h": 56 },
    "rotated": false,
    "trimmed": true,
    "spriteSourceSize": { "x": 68, "y": 40, "w": 24, "h": 56 },
    "sourceSize": { "w": 160, "h": 128 },
    "duration": 100
   },
   "player (body) 20.ase": {
    "frame": { "x": 182, "y": 101, "w": 25, "h": 56 },
    "rotated": false,
    "trimmed": true,
    "spriteSourceSize": { "x": 67, "y": 40, "w": 25, "h": 56 },
    "sourceSize": { "w": 160, "h": 128 },
    "duration": 100
   },
   "player (hair) 0.ase": {
    "frame": { "x": 204, "y": 184, "w": 25, "h": 23 },
    "rotated": false,
    "trimmed": true,
    "spriteSourceSize": { "x": 72, "y": 21, "w": 25, "h": 23 },
    "sourceSize": { "w": 160, "h": 128 },
    "duration": 400
   },
   "player (hair) 1.ase": {
    "frame": { "x": 167, "y": 185, "w": 25, "h": 22 },
    "rotated": false,
    "trimmed": true,
    "spriteSourceSize": { "x": 72, "y": 22, "w": 25, "h": 22 },
    "sourceSize": { "w": 160, "h": 128 },
    "duration": 200
   },
   "player (hair) 2.ase": {
    "frame": { "x": 0, "y": 185, "w": 25, "h": 23 },
    "rotated": false,
    "trimmed": true,
    "spriteSourceSize": { "x": 72, "y": 22, "w": 25, "h": 23 },
    "sourceSize": { "w": 160, "h": 128 },
    "duration": 400
   },
   "player (hair) 3.ase": {
    "frame": { "x": 125, "y": 199, "w": 22, "h": 22 },
    "rotated": false,
    "trimmed": true,
    "spriteSourceSize": { "x": 73, "y": 23, "w": 22, "h": 22 },
    "sourceSize": { "w": 160, "h": 128 },
    "duration": 150
   },
   "player (hair) 4.ase": {
    "frame": { "x": 477, "y": 197, "w": 22, "h": 22 },
    "rotated": false,
    "trimmed": true,
    "spriteSourceSize": { "x": 74, "y": 25, "w": 22, "h": 22 },
    "sourceSize": { "w": 160, "h": 128 },
    "duration": 150
   },
   "player (hair) 5.ase": {
    "frame": { "x": 310, "y": 195, "w": 22, "h": 22 },
    "rotated": false,
    "trimmed": true,
    "spriteSourceSize": { "x": 72, "y": 23, "w": 22, "h": 22 },
    "sourceSize": { "w": 160, "h": 128 },
    "duration": 150
   },
   "player (hair) 6.ase": {
    "frame": { "x": 417, "y": 203, "w": 22, "h": 22 },
    "rotated": false,
    "trimmed": true,
    "spriteSourceSize": { "x": 74, "y": 23, "w": 22, "h": 22 },
    "sourceSize": { "w": 160, "h": 128 },
    "duration": 150
   },
   "player (hair) 7.ase": {
    "frame": { "x": 49, "y": 204, "w": 22, "h": 22 },
    "rotated": false,
    "trimmed": true,
    "spriteSourceSize": { "x": 74, "y": 25, "w": 22, "h": 22 },
    "sourceSize": { "w": 160, "h": 128 },
    "duration": 150
   },
   "player (hair) 8.ase": {
    "frame": { "x": 72, "y": 204, "w": 22, "h": 22 },
    "rotated": false,
    "trimmed": true,
    "spriteSourceSize": { "x": 72, "y": 23, "w": 22, "h": 22 },
    "sourceSize": { "w": 160, "h": 128 },
    "duration": 150
   },
   "player (hair) 9.ase": {
    "frame": { "x": 333, "y": 215, "w": 23, "h": 20 },
    "rotated": false,
    "trimmed": true,
    "spriteSourceSize": { "x": 79, "y": 29, "w": 23, "h": 20 },
    "sourceSize": { "w": 160, "h": 128 },
    "duration": 100
   },
   "player (hair) 10.ase": {
    "frame": { "x": 357, "y": 218, "w": 24, "h": 19 },
    "rotated": false,
    "trimmed": true,
    "spriteSourceSize": { "x": 78, "y": 31, "w": 24, "h": 19 },
    "sourceSize": { "w": 160, "h": 128 },
    "duration": 100
   },
   "player (hair) 11.ase": {
    "frame": { "x": 23, "y": 215, "w": 23, "h": 20 },
    "rotated": false,
    "trimmed": true,
    "spriteSourceSize": { "x": 79, "y": 30, "w": 23, "h": 20 },
    "sourceSize": { "w": 160, "h": 128 },
    "duration": 100
   },
   "player (hair) 12.ase": {
    "frame": { "x": 212, "y": 213, "w": 23, "h": 20 },
    "rotated": false,
    "trimmed": true,
    "spriteSourceSize": { "x": 79, "y": 29, "w": 23, "h": 20 },
    "sourceSize": { "w": 160, "h": 128 },
    "duration": 100
   },
   "player (hair) 13.ase": {
    "frame": { "x": 293, "y": 218, "w": 24, "h": 19 },
    "rotated": false,
    "trimmed": true,
    "spriteSourceSize": { "x": 78, "y": 31, "w": 24, "h": 19 },
    "sourceSize": { "w": 160, "h": 128 },
    "duration": 100
   },
   "player (hair) 14.ase": {
    "frame": { "x": 256, "y": 223, "w": 22, "h": 20 },
    "rotated": false,
    "trimmed": true,
    "spriteSourceSize": { "x": 79, "y": 29, "w": 22, "h": 20 },
    "sourceSize": { "w": 160, "h": 128 },
    "duration": 100
   },
   "player (hair) 15.ase": {
    "frame": { "x": 417, "y": 226, "w": 23, "h": 19 },
    "rotated": false,
    "trimmed": true,
    "spriteSourceSize": { "x": 71, "y": 19, "w": 23, "h": 19 },
    "sourceSize": { "w": 160, "h": 128 },
    "duration": 100
   },
   "player (hair) 16.ase": {
    "frame": { "x": 440, "y": 212, "w": 22, "h": 21 },
    "rotated": false,
    "trimmed": true,
    "spriteSourceSize": { "x": 72, "y": 17, "w": 22, "h": 21 },
    "sourceSize": { "w": 160, "h": 128 },
    "duration": 100
   },
   "player (hair) 17.ase": {
    "frame": { "x": 489, "y": 220, "w": 21, "h": 21 },
    "rotated": false,
    "trimmed": true,
    "spriteSourceSize": { "x": 73, "y": 17, "w": 21, "h": 21 },
    "sourceSize": { "w": 160, "h": 128 },
    "duration": 100
   },
   "player (hair) 18.ase": {
    "frame": { "x": 47, "y": 227, "w": 23, "h": 19 },
    "rotated": false,
    "trimmed": true,
    "spriteSourceSize": { "x": 71, "y": 19, "w": 23, "h": 19 },
    "sourceSize": { "w": 160, "h": 128 },
    "duration": 100
   },
   "player (hair) 19.ase": {
    "frame": { "x": 0, "y": 209, "w": 22, "h": 21 },
    "rotated": false,
    "trimmed": true,
    "spriteSourceSize": { "x": 72, "y": 17, "w": 22, "h": 21 },
    "sourceSize": { "w": 160, "h": 128 },
    "duration": 100
   },
   "player (hair) 20.ase": {
    "frame": { "x": 109, "y": 222, "w": 21, "h": 21 },
    "rotated": false,
    "trimmed": true,
    "spriteSourceSize": { "x": 73, "y": 17, "w": 21, "h": 21 },
    "sourceSize": { "w": 160, "h": 128 },
    "duration": 100
   },
   "player (arm-front) 0.ase": {
    "frame": { "x": 89, "y": 172, "w": 19, "h": 31 },
    "rotated": false,
    "trimmed": true,
    "spriteSourceSize": { "x": 69, "y": 42, "w": 19, "h": 31 },
    "sourceSize": { "w": 160, "h": 128 },
    "duration": 400
   },
   "player (arm-front) 1.ase": {
    "frame": { "x": 69, "y": 172, "w": 19, "h": 31 },
    "rotated": false,
    "trimmed": true,
    "spriteSourceSize": { "x": 69, "y": 42, "w": 19, "h": 31 },
    "sourceSize": { "w": 160, "h": 128 },
    "duration": 200
   },
   "player (arm-front) 2.ase": {
    "frame": { "x": 147, "y": 173, "w": 19, "h": 31 },
    "rotated": false,
    "trimmed": true,
    "spriteSourceSize": { "x": 69, "y": 43, "w": 19, "h": 31 },
    "sourceSize": { "w": 160, "h": 128 },
    "duration": 400
   },
   "player (arm-front) 3.ase": {
    "frame": { "x": 180, "y": 208, "w": 15, "h": 32 },
    "rotated": false,
    "trimmed": true,
    "spriteSourceSize": { "x": 74, "y": 42, "w": 15, "h": 32 },
    "sourceSize": { "w": 160, "h": 128 },
    "duration": 150
   },
   "player (arm-front) 4.ase": {
    "frame": { "x": 257, "y": 190, "w": 16, "h": 31 },
    "rotated": false,
    "trimmed": true,
    "spriteSourceSize": { "x": 73, "y": 44, "w": 16, "h": 31 },
    "sourceSize": { "w": 160, "h": 128 },
    "duration": 150
   },
   "player (arm-front) 5.ase": {
    "frame": { "x": 148, "y": 205, "w": 15, "h": 32 },
    "rotated": false,
    "trimmed": true,
    "spriteSourceSize": { "x": 72, "y": 42, "w": 15, "h": 32 },
    "sourceSize": { "w": 160, "h": 128 },
    "duration": 150
   },
   "player (arm-front) 6.ase": {
    "frame": { "x": 164, "y": 208, "w": 15, "h": 32 },
    "rotated": false,
    "trimmed": true,
    "spriteSourceSize": { "x": 74, "y": 42, "w": 15, "h": 32 },
    "sourceSize": { "w": 160, "h": 128 },
    "duration": 150
   },
   "player (arm-front) 7.ase": {
    "frame": { "x": 386, "y": 194, "w": 16, "h": 31 },
    "rotated": false,
    "trimmed": true,
    "spriteSourceSize": { "x": 73, "y": 44, "w": 16, "h": 31 },
    "sourceSize": { "w": 160, "h": 128 },
    "duration": 150
   },
   "player (arm-front) 8.ase": {
    "frame": { "x": 196, "y": 208, "w": 15, "h": 32 },
    "rotated": false,
    "trimmed": true,
    "spriteSourceSize": { "x": 73, "y": 42, "w": 15, "h": 32 },
    "sourceSize": { "w": 160, "h": 128 },
    "duration": 150
   },
   "player (arm-front) 9.ase": {
    "frame": { "x": 230, "y": 192, "w": 26, "h": 20 },
    "rotated": false,
    "trimmed": true,
    "spriteSourceSize": { "x": 66, "y": 47, "w": 26, "h": 20 },
    "sourceSize": { "w": 160, "h": 128 },
    "duration": 100
   },
   "player (arm-front) 10.ase": {
    "frame": { "x": 463, "y": 220, "w": 25, "h": 18 },
    "rotated": false,
    "trimmed": true,
    "spriteSourceSize": { "x": 65, "y": 48, "w": 25, "h": 18 },
    "sourceSize": { "w": 160, "h": 128 },
    "duration": 100
   },
   "player (arm-front) 11.ase": {
    "frame": { "x": 450, "y": 191, "w": 26, "h": 20 },
    "rotated": false,
    "trimmed": true,
    "spriteSourceSize": { "x": 66, "y": 48, "w": 26, "h": 20 },
    "sourceSize": { "w": 160, "h": 128 },
    "duration": 100
   },
   "player (arm-front) 12.ase": {
    "frame": { "x": 26, "y": 191, "w": 22, "h": 23 },
    "rotated": false,
    "trimmed": true,
    "spriteSourceSize": { "x": 73, "y": 47, "w": 22, "h": 23 },
    "sourceSize": { "w": 160, "h": 128 },
    "duration": 100
   },
   "player (arm-front) 13.ase": {
    "frame": { "x": 236, "y": 213, "w": 19, "h": 24 },
    "rotated": false,
    "trimmed": true,
    "spriteSourceSize": { "x": 78, "y": 51, "w": 19, "h": 24 },
    "sourceSize": { "w": 160, "h": 128 },
    "duration": 100
   },
   "player (arm-front) 14.ase": {
    "frame": { "x": 363, "y": 194, "w": 22, "h": 23 },
    "rotated": false,
    "trimmed": true,
    "spriteSourceSize": { "x": 73, "y": 49, "w": 22, "h": 23 },
    "sourceSize": { "w": 160, "h": 128 },
    "duration": 100
   },
   "player (arm-front) 15.ase": {
    "frame": { "x": 336, "y": 194, "w": 26, "h": 20 },
    "rotated": false,
    "trimmed": true,
    "spriteSourceSize": { "x": 65, "y": 43, "w": 26, "h": 20 },
    "sourceSize": { "w": 160, "h": 128 },
    "duration": 100
   },
   "player (arm-front) 16.ase": {
    "frame": { "x": 336, "y": 194, "w": 26, "h": 20 },
    "rotated": false,
    "trimmed": true,
    "spriteSourceSize": { "x": 65, "y": 43, "w": 26, "h": 20 },
    "sourceSize": { "w": 160, "h": 128 },
    "duration": 100
   },
   "player (arm-front) 17.ase": {
    "frame": { "x": 336, "y": 194, "w": 26, "h": 20 },
    "rotated": false,
    "trimmed": true,
    "spriteSourceSize": { "x": 65, "y": 43, "w": 26, "h": 20 },
    "sourceSize": { "w": 160, "h": 128 },
    "duration": 100
   },
   "player (arm-front) 18.ase": {
    "frame": { "x": 336, "y": 194, "w": 26, "h": 20 },
    "rotated": false,
    "trimmed": true,
    "spriteSourceSize": { "x": 65, "y": 43, "w": 26, "h": 20 },
    "sourceSize": { "w": 160, "h": 128 },
    "duration": 100
   },
   "player (arm-front) 19.ase": {
    "frame": { "x": 336, "y": 194, "w": 26, "h": 20 },
    "rotated": false,
    "trimmed": true,
    "spriteSourceSize": { "x": 65, "y": 43, "w": 26, "h": 20 },
    "sourceSize": { "w": 160, "h": 128 },
    "duration": 100
   },
   "player (arm-front) 20.ase": {
    "frame": { "x": 336, "y": 194, "w": 26, "h": 20 },
    "rotated": false,
    "trimmed": true,
    "spriteSourceSize": { "x": 65, "y": 43, "w": 26, "h": 20 },
    "sourceSize": { "w": 160, "h": 128 },
    "duration": 100
   }
 },
 "meta": {
  "app": "http://www.aseprite.org/",
  "version": "1.2.15-x64",
  "image": "player.png",
  "format": "I8",
  "size": { "w": 512, "h": 512 },
  "scale": "1",
  "frameTags": [
   { "name": "stand", "from": 0, "to": 2, "direction": "pingpong" },
   { "name": "walk", "from": 3, "to": 8, "direction": "forward" },
   { "name": "run", "from": 9, "to": 14, "direction": "forward" },
   { "name": "drop", "from": 15, "to": 17, "direction": "pingpong" },
   { "name": "flap", "from": 18, "to": 20, "direction": "forward" },
   { "name": "stand", "from": 0, "to": 2, "direction": "pingpong" },
   { "name": "walk", "from": 3, "to": 8, "direction": "forward" },
   { "name": "run", "from": 9, "to": 14, "direction": "forward" },
   { "name": "drop", "from": 15, "to": 17, "direction": "pingpong" },
   { "name": "flap", "from": 18, "to": 20, "direction": "forward" },
   { "name": "stand", "from": 0, "to": 2, "direction": "pingpong" },
   { "name": "walk", "from": 3, "to": 8, "direction": "forward" },
   { "name": "run", "from": 9, "to": 14, "direction": "forward" },
   { "name": "drop", "from": 15, "to": 17, "direction": "pingpong" },
   { "name": "flap", "from": 18, "to": 20, "direction": "forward" },
   { "name": "stand", "from": 0, "to": 2, "direction": "pingpong" },
   { "name": "walk", "from": 3, "to": 8, "direction": "forward" },
   { "name": "run", "from": 9, "to": 14, "direction": "forward" },
   { "name": "drop", "from": 15, "to": 17, "direction": "pingpong" },
   { "name": "flap", "from": 18, "to": 20, "direction": "forward" },
   { "name": "stand", "from": 0, "to": 2, "direction": "pingpong" },
   { "name": "walk", "from": 3, "to": 8, "direction": "forward" },
   { "name": "run", "from": 9, "to": 14, "direction": "forward" },
   { "name": "drop", "from": 15, "to": 17, "direction": "pingpong" },
   { "name": "flap", "from": 18, "to": 20, "direction": "forward" },
   { "name": "stand", "from": 0, "to": 2, "direction": "pingpong" },
   { "name": "walk", "from": 3, "to": 8, "direction": "forward" },
   { "name": "run", "from": 9, "to": 14, "direction": "forward" },
   { "name": "drop", "from": 15, "to": 17, "direction": "pingpong" },
   { "name": "flap", "from": 18, "to": 20, "direction": "forward" },
   { "name": "stand", "from": 0, "to": 2, "direction": "pingpong" },
   { "name": "walk", "from": 3, "to": 8, "direction": "forward" },
   { "name": "run", "from": 9, "to": 14, "direction": "forward" },
   { "name": "drop", "from": 15, "to": 17, "direction": "pingpong" },
   { "name": "flap", "from": 18, "to": 20, "direction": "forward" },
   { "name": "stand", "from": 0, "to": 2, "direction": "pingpong" },
   { "name": "walk", "from": 3, "to": 8, "direction": "forward" },
   { "name": "run", "from": 9, "to": 14, "direction": "forward" },
   { "name": "drop", "from": 15, "to": 17, "direction": "pingpong" },
   { "name": "flap", "from": 18, "to": 20, "direction": "forward" }
  ]
 }
}
